Fall-of-Wicket Analysis
…
We first try fitting a logistic regression with every predictor in a linear relationship

wf_log_basic <- workflow() %>%
  add_recipe(recipe(is_wkt ~ ., data = train_bal) %>%
               step_rm(bowl_class) %>%
               step_naomit(all_predictors()) %>%
               step_normalize(all_numeric()) %>%
               step_dummy(innings, bat_position, bat_arm, bowl_type)) %>%
  add_model(logistic_reg() %>% set_engine("glm"))
wf_log_basic <- wf_log_basic %>% fit(data = train_bal)
fit_log_basic <- wf_log_basic %>% pull_workflow_fit()

tidy(fit_log_basic)

## # A tibble: 60 x 5
##    term        estimate std.error statistic  p.value
##    <chr>          <dbl>     <dbl>     <dbl>    <dbl>
##  1 (Intercept) -1.80       0.159   -11.3    9.40e-30
##  2 match_balls  0.0500     0.0326    1.54   1.24e- 1
##  3 inn_balls   -0.0953     0.0563   -1.69   9.03e- 2
##  4 team_wkts1   0.0122     0.0514    0.237  8.13e- 1
##  5 team_wkts2   0.0179     0.0594    0.302  7.63e- 1
##  6 team_wkts3  -0.00472    0.0676   -0.0699 9.44e- 1
##  7 team_wkts4   0.00570    0.0764    0.0746 9.41e- 1
##  8 team_wkts5   0.0389     0.0841    0.462  6.44e- 1
##  9 team_wkts6   0.134      0.0924    1.45   1.47e- 1
## 10 team_wkts7   0.265      0.0998    2.65   7.96e- 3
## # ... with 50 more rows
…
Next, we try a model with less predictors and an expected interaction between the bowling type and the pitch conditions.

wf_log_less <- workflow() %>%
  add_recipe(recipe(is_wkt ~ ., data = train_bal) %>%
               step_rm(bowl_wkts, team_score, bat_position, career_bowl_balls, bowl_type, seam_factor) %>%
               step_naomit(all_predictors()) %>%
               step_dummy(innings, bat_arm, bowl_class) %>%
               step_interact(terms = ~starts_with("bowl_class"):spin_factor)) %>%
  add_model(logistic_reg() %>% set_engine("glm"))
wf_log_less <- wf_log_less %>% fit(data = train_bal)
fit_log_less <- wf_log_less %>% pull_workflow_fit()

tidy(fit_log_less)

## # A tibble: 30 x 5
##    term         estimate std.error statistic    p.value
##    <chr>           <dbl>     <dbl>     <dbl>      <dbl>
##  1 (Intercept) -0.371    0.0840     -4.42    0.00000974
##  2 match_balls  0.000126 0.0000504   2.50    0.0123    
##  3 inn_balls   -0.000326 0.000128   -2.55    0.0107    
##  4 team_wkts1   0.0147   0.0454      0.323   0.747     
##  5 team_wkts2   0.0596   0.0472      1.26    0.207     
##  6 team_wkts3   0.000219 0.0490      0.00448 0.996     
##  7 team_wkts4   0.00878  0.0508      0.173   0.863     
##  8 team_wkts5   0.00517  0.0536      0.0964  0.923     
##  9 team_wkts6   0.0805   0.0567      1.42    0.156     
## 10 team_wkts7   0.203    0.0614      3.31    0.000929  
## # ... with 20 more rows
…
